<svg version="1.1" id="Layer_1" xmlns="http://www.w3.org/2000/svg" xmlns:xlink="http://www.w3.org/1999/xlink" x="0px" y="0px"
	 viewBox="0 0 56.7 56.7" style="enable-background:new 0 0 56.7 56.7;" xml:space="preserve">
<path d="M28.3,3.6c-13.6,0-24.7,11-24.7,24.7c0,13.6,11,24.7,24.7,24.7C42.1,53,53.1,42,53.1,28.3
	C53,14.6,42,3.6,28.3,3.6z M44.5,36.6c-0.3,0.8-1.7,1.3-4.2,1.7c-0.1,0.1-0.2,0.5-0.2,0.8c-0.1,0.2-0.1,0.5-0.2,0.7
	c-0.1,0.4-0.4,0.6-0.7,0.6l0,0l0,0c-0.2,0-0.4,0-0.7-0.1c-0.5-0.1-1-0.2-1.7-0.2c-0.4,0-0.8,0-1.2,0.1c-0.8,0.1-1.5,0.6-2.3,1.2
	c-1.1,0.8-2.4,1.7-4.4,1.7c-0.1,0-0.2,0-0.2,0c-0.1,0-0.1,0-0.2,0c-2,0-3.3-0.9-4.4-1.7c-0.8-0.6-1.5-1.1-2.3-1.2
	c-0.4-0.1-0.8-0.1-1.2-0.1c-0.7,0-1.3,0.1-1.7,0.2c-0.3,0.1-0.5,0.1-0.7,0.1c-0.5,0-0.7-0.3-0.8-0.6c-0.1-0.3-0.1-0.5-0.2-0.8
	c-0.1-0.2-0.1-0.6-0.2-0.8c-2.5-0.4-3.9-1-4.2-1.7c0-0.1-0.1-0.2-0.1-0.3c0-0.3,0.2-0.6,0.6-0.7c4.4-0.7,6.4-5.2,6.4-5.4l0,0
	c0.2-0.5,0.3-0.9,0.2-1.2c-0.3-0.6-1.2-0.9-1.8-1.1c-0.2-0.1-0.3-0.1-0.5-0.2c-1.5-0.6-1.7-1.3-1.6-1.7c0.1-0.6,0.9-1.1,1.6-1.1
	c0.2,0,0.4,0,0.5,0.1c0.6,0.3,1.1,0.4,1.5,0.4c0.3,0,0.5-0.1,0.6-0.1c0-0.3,0-0.5,0-0.8c-0.1-2.2-0.3-4.9,0.4-6.5
	c2.1-4.8,6.6-5.1,8-5.1h0.6h0.1l0,0c1.3,0,5.9,0.4,8,5.1c0.7,1.6,0.5,4.3,0.4,6.5v0.1c0,0.2,0,0.5,0,0.7c0.1,0.1,0.3,0.1,0.5,0.1
	c0.4,0,0.9-0.2,1.4-0.4c0.2-0.1,0.5-0.1,0.6-0.1c0.2,0,0.5,0,0.7,0.1l0,0c0.6,0.2,1,0.6,1,1.1c0,0.6-0.5,1.1-1.6,1.6
	c-0.1,0.1-0.3,0.1-0.5,0.2c-0.6,0.2-1.5,0.5-1.8,1.1c-0.1,0.3-0.1,0.7,0.2,1.2l0,0c0.1,0.2,2.1,4.7,6.4,5.4c0.3,0.1,0.6,0.4,0.6,0.7
	C44.5,36.3,44.5,36.4,44.5,36.6z"/>
</svg>
